text.txt,0.17,0.13
text.txt,0.01,0.00
text.txt,0.05,0.05
text.txt,0.06,0.04
text.txt,0.06,0.06
text.txt,0.06,0.04
text.txt,0.08,0.07
text.txt,0.06,0.04
text.txt,0.06,0.04
text.txt,0.06,0.04
text.txt,0.08,0.05
text.txt,0.09,0.07
No,0.05,0.06
No,0.05,0.05
No,0.06,0.06
No,0.05,0.05
No,0.05,0.06
No,0.05,0.04
No,0.05,0.04
No,0.05,0.04
No,0.05,0.05
report.csv,0.07,0.07
No,0.07,0.05
text.txt,0.07,0.07
No,0.09,0.05
No,0.06,0.05
No,0.06,0.06
report.csv,0.07,0.05
No,0.08,0.07
text.txt,0.07,0.07
No,0.05,0.04
No,0.05,0.04
No,0.06,0.04
33,0.05,0.05
No,0.06,0.04
2,0.05,0.06
No,0.06,0.04
No,0.05,0.05
No,0.07,0.06
39,0.07,0.04
No,0.07,0.06
2,0.05,0.06
,0.01,0.00
,0.01,0.00
,0.01,0.01
12,0.01,0.00
,0.01,0.01
1,0.01,0.00
testinputs/doc.txt,0.00,0.00
testinputs/docs.txt,0.00,0.00
testinputs/file.txt,0.00,0.00
testinputs/report.csv,0.00,0.00
testinputs/tetst.txt,0.00,0.00
testinputs/text.txt,0.00,0.00
testinputs/doc.txt,0.00,0.00
testinputs/docs.txt,0.00,0.01
testinputs/file.txt,0.00,0.01
testinputs/report.csv,0.00,0.01
testinputs/tetst.txt,0.00,0.00
testinputs/text.txt,0.00,0.00
testinputs/doc.txt,0.05,0.04
testinputs/docs.txt,0.06,0.04
testinputs/file.txt,0.05,0.04
testinputs/report.csv,0.09,0.07
testinputs/tetst.txt,0.09,0.06
testinputs/text.txt,0.08,0.07
testinputs/doc.txt,0.06,0.04
testinputs/docs.txt,0.07,0.05
testinputs/file.txt,0.07,0.07
testinputs/report.csv,0.05,0.02
testinputs/tetst.txt,0.05,0.04
testinputs/text.txt,0.05,0.04
testinputs/doc.txt,0.06,0.06
testinputs/docs.txt,0.06,0.04
testinputs/file.txt,0.05,0.04
testinputs/report.csv,0.06,0.04
testinputs/tetst.txt,0.06,0.06
testinputs/text.txt,0.06,0.07
testinputs/doc.txt,0.05,0.04
testinputs/docs.txt,0.05,0.04
testinputs/file.txt,0.06,0.02
testinputs/report.csv,0.06,0.05
testinputs/tetst.txt,0.06,0.06
testinputs/text.txt,0.08,0.05
testinputs/doc.txt,0.06,0.04
testinputs/docs.txt,0.05,0.04
testinputs/file.txt,0.05,0.04
testinputs/report.csv,0.06,0.04
testinputs/tetst.txt,0.05,0.04
testinputs/text.txt,0.06,0.04
testinputs/doc.txt,0.09,0.07
testinputs/docs.txt,0.05,0.04
testinputs/file.txt,0.05,0.04
testinputs/report.csv,0.06,0.06
testinputs/tetst.txt,0.05,0.04
testinputs/text.txt,0.06,0.04
testinputs/doc.txt,0.06,0.04
testinputs/docs.txt,0.05,0.04
testinputs/file.txt,0.06,0.07
testinputs/report.csv,0.06,0.04
testinputs/tetst.txt,0.05,0.03
testinputs/text.txt,0.07,0.04
testinputs/doc.txt,0.05,0.04
testinputs/docs.txt,0.06,0.04
testinputs/file.txt,0.07,0.07
testinputs/report.csv,0.05,0.06
testinputs/tetst.txt,0.06,0.06
testinputs/text.txt,0.06,0.04
testinputs/doc.txt,0.09,0.06
testinputs/docs.txt,0.10,0.08
testinputs/file.txt,0.12,0.07
testinputs/report.csv,0.11,0.08
testinputs/tetst.txt,0.08,0.07
testinputs/text.txt,0.07,0.04
testinputs/doc.txt,0.00,0.00
testinputs/docs.txt,0.00,0.01
testinputs/file.txt,0.00,0.00
testinputs/report.csv,0.00,0.00
testinputs/tetst.txt,0.00,0.00
testinputs/text.txt,0.00,0.00
testinputs/doc.txt,0.01,0.00
testinputs/docs.txt,0.01,0.01
testinputs/file.txt,0.01,0.00
testinputs/report.csv,0.01,0.00
testinputs/tetst.txt,0.01,0.00
testinputs/text.txt,0.00,0.01
testinputs/doc.txt,0.00,0.00
testinputs/docs.txt,0.00,0.00
testinputs/file.txt,0.00,0.00
testinputs/report.csv,0.00,0.00
testinputs/tetst.txt,0.00,0.00
testinputs/text.txt,0.00,0.00
testinputs/doc.txt,0.00,0.00
testinputs/docs.txt,0.00,0.00
testinputs/file.txt,0.00,0.00
testinputs/report.csv,0.00,0.00
testinputs/tetst.txt,0.00,0.00
testinputs/text.txt,0.00,0.00
testinputs/doc.txt,0.00,0.00
testinputs/docs.txt,0.00,0.00
testinputs/file.txt,0.00,0.00
testinputs/report.csv,0.00,0.00
testinputs/tetst.txt,0.00,0.00
testinputs/text.txt,0.00,0.00
testinputs/doc.txt,0.00,0.01
testinputs/docs.txt,0.00,0.01
testinputs/file.txt,0.00,0.01
testinputs/report.csv,0.00,0.01
testinputs/tetst.txt,0.01,0.00
testinputs/text.txt,0.01,0.00
testinputs/doc.txt,0.00,0.00
testinputs/docs.txt,0.00,0.01
testinputs/file.txt,0.00,0.00
testinputs/report.csv,0.00,0.01
testinputs/tetst.txt,0.00,0.00
testinputs/text.txt,0.00,0.00
testinputs/doc.txt,0.00,0.00
testinputs/docs.txt,0.00,0.01
testinputs/file.txt,0.02,0.00
testinputs/report.csv,0.00,0.00
testinputs/status.txt,0.01,0.00
testinputs/tetst.txt,0.00,0.00
testinputs/text.txt,0.01,0.00
testinputs/doc.txt,0.00,0.01
testinputs/docs.txt,0.00,0.01
testinputs/file.txt,0.00,0.01
testinputs/report.csv,0.00,0.01
testinputs/status.txt,0.00,0.00
testinputs/tetst.txt,0.01,0.01
testinputs/text.txt,0.00,0.00
testinputs/doc.txt,0.00,0.00
testinputs/docs.txt,0.00,0.00
testinputs/file.txt,0.01,0.00
testinputs/report.csv,0.01,0.00
testinputs/status.txt,0.01,0.00
testinputs/tetst.txt,0.00,0.00
testinputs/text.txt,0.00,0.00
testinputs/doc.txt,0.00,0.00
testinputs/docs.txt,0.00,0.00
testinputs/file.txt,0.00,0.00
testinputs/report.csv,0.00,0.01
testinputs/status.txt,0.00,0.00
testinputs/tetst.txt,0.00,0.00
testinputs/text.txt,0.00,0.00
testinputs/doc.txt,0.00,0.01
testinputs/docs.txt,0.00,0.01
testinputs/file.txt,0.00,0.01
testinputs/report.csv,0.00,0.00
testinputs/status.txt,0.00,0.00
testinputs/tetst.txt,0.00,0.00
testinputs/text.txt,0.01,0.00
testinputs/doc.txt,0.00,0.01
testinputs/docs.txt,0.00,0.00
testinputs/file.txt,0.00,0.00
testinputs/report.csv,0.00,0.00
testinputs/status.txt,0.00,0.00
testinputs/tetst.txt,0.00,0.00
testinputs/text.txt,0.00,0.01
testinputs/doc.txt,0.01,0.00
testinputs/docs.txt,0.02,0.00
testinputs/file.txt,0.01,0.01
testinputs/report.csv,0.02,0.00
testinputs/status.txt,0.01,0.00
testinputs/tetst.txt,0.02,0.00
testinputs/text.txt,0.01,0.01
testinputs/doc.txt,0.01,0.00
testinputs/docs.txt,0.01,0.01
testinputs/file.txt,0.01,0.00
testinputs/report.csv,0.01,0.00
testinputs/status.txt,0.03,0.02
testinputs/tetst.txt,0.01,0.00
testinputs/text.txt,0.01,0.00
